<?xml version="1.0" encoding="UTF-8"?>
<svg width="623px" height="660px" viewBox="0 0 623 660" version="1.1" xmlns="http://www.w3.org/2000/svg" xmlns:xlink="http://www.w3.org/1999/xlink">
    <!-- Generator: Sketch 52.6 (67491) - http://www.bohemiancoding.com/sketch -->
    <title>Group 26</title>
    <desc>Created with Sketch.</desc>
    <g id="Page-1" stroke="none" stroke-width="1" fill="none" fill-rule="evenodd" opacity="0.2">
        <g id="Desktop-HD" transform="translate(-817.000000, -638.000000)">
            <g id="Group-26" transform="translate(817.000000, 638.000000)">
                <g id="Group-21" transform="translate(304.000000, 432.000000)">
                    <rect id="Rectangle" fill="#6262CC" x="272.753349" y="33.416" width="26.6560766" height="26.736" rx="1.6079999"></rect>
                    <rect id="Rectangle" fill="#6262CC" x="170.579713" y="66.84" width="26.6560766" height="26.736" rx="1.6079999"></rect>
                    <rect id="Rectangle" fill="#6262CC" x="272.753349" y="66.84" width="26.6560766" height="26.736" rx="1.6079999"></rect>
                    <rect id="Rectangle" fill="#6262CC" x="306.816555" y="66.84" width="26.6560766" height="26.736" rx="1.6079999"></rect>
                    <rect id="Rectangle" fill="#6262CC" x="170.579713" y="167.096" width="26.6560766" height="26.736" rx="1.6079999"></rect>
                    <rect id="Rectangle" fill="#6262CC" x="204.634928" y="167.096" width="26.6560766" height="26.736" rx="1.6079999"></rect>
                    <rect id="Rectangle" fill="#6262CC" x="136.524498" y="133.672" width="26.6560766" height="26.736" rx="1.6079999"></rect>
                    <rect id="Rectangle" fill="#6262CC" x="238.698134" y="100.256" width="26.6560766" height="26.736" rx="1.6079999"></rect>
                    <rect id="Rectangle" fill="#6262CC" x="34.3428708" y="200.512" width="26.6560766" height="26.736" rx="1.6079999"></rect>
                    <rect id="Rectangle" fill="#E6E6E6" x="170.579713" y="-2.13162821e-14" width="26.6560766" height="26.736" rx="1.6079999"></rect>
                    <rect id="Rectangle" fill="#E6E6E6" x="238.698134" y="-2.13162821e-14" width="26.6560766" height="26.736" rx="1.6079999"></rect>
                    <rect id="Rectangle" fill="#E6E6E6" x="102.461292" y="200.512" width="26.6560766" height="26.736" rx="1.6079999"></rect>
                    <rect id="Rectangle" fill="#E6E6E6" x="136.524498" y="200.512" width="26.6560766" height="26.736" rx="1.6079999"></rect>
                    <rect id="Rectangle" fill="#E6E6E6" x="238.698134" y="200.512" width="26.6560766" height="26.736" rx="1.6079999"></rect>
                    <rect id="Rectangle" fill="#E6E6E6" x="306.816555" y="-2.13162821e-14" width="26.6560766" height="26.736" rx="1.6079999"></rect>
                    <rect id="Rectangle" fill="#E6E6E6" x="0.287655502" y="200.512" width="26.6560766" height="26.736" rx="1.6079999"></rect>
                    <rect id="Rectangle" fill="#E6E6E6" x="306.816555" y="200.512" width="26.6560766" height="26.736" rx="1.6079999"></rect>
                    <rect id="Rectangle" fill="#3F3177" x="272.753349" y="-2.13162821e-14" width="26.6560766" height="26.736" rx="1.6079999"></rect>
                    <rect id="Rectangle" fill="#3F3177" x="238.698134" y="33.416" width="26.6560766" height="26.736" rx="1.6079999"></rect>
                    <rect id="Rectangle" fill="#3F3177" x="238.698134" y="66.84" width="26.6560766" height="26.736" rx="1.6079999"></rect>
                    <rect id="Rectangle" fill="#3F3177" x="170.579713" y="33.416" width="26.6560766" height="26.736" rx="1.6079999"></rect>
                    <rect id="Rectangle" fill="#3F3177" x="204.634928" y="100.256" width="26.6560766" height="26.736" rx="1.6079999"></rect>
                    <rect id="Rectangle" fill="#3F3177" x="136.524498" y="100.256" width="26.6560766" height="26.736" rx="1.6079999"></rect>
                    <rect id="Rectangle" fill="#3F3177" x="136.524498" y="167.096" width="26.6560766" height="26.736" rx="1.6079999"></rect>
                    <rect id="Rectangle" fill="#3F3177" x="272.753349" y="133.672" width="26.6560766" height="26.736" rx="1.6079999"></rect>
                    <rect id="Rectangle" fill="#3F3177" x="306.816555" y="133.672" width="26.6560766" height="26.736" rx="1.6079999"></rect>
                    <rect id="Rectangle" fill="#3F3177" x="272.753349" y="167.096" width="26.6560766" height="26.736" rx="1.6079999"></rect>
                    <rect id="Rectangle" fill="#3F3177" x="204.634928" y="200.512" width="26.6560766" height="26.736" rx="1.6079999"></rect>
                    <rect id="Rectangle" fill="#3F3177" x="170.579713" y="200.512" width="26.6560766" height="26.736" rx="1.6079999"></rect>
                    <rect id="Rectangle" fill="#3F3177" x="102.461292" y="133.672" width="26.6560766" height="26.736" rx="1.6079999"></rect>
                    <rect id="Rectangle" fill="#9795F9" x="204.634928" y="66.84" width="26.6560766" height="26.736" rx="1.6079999"></rect>
                    <rect id="Rectangle" fill="#9795F9" x="238.698134" y="167.096" width="26.6560766" height="26.736" rx="1.6079999"></rect>
                    <rect id="Rectangle" fill="#9795F9" x="204.634928" y="33.416" width="26.6560766" height="26.736" rx="1.6079999"></rect>
                    <rect id="Rectangle" fill="#9795F9" x="272.753349" y="100.256" width="26.6560766" height="26.736" rx="1.6079999"></rect>
                    <rect id="Rectangle" fill="#9795F9" x="68.4060766" y="200.512" width="26.6560766" height="26.736" rx="1.6079999"></rect>
                    <rect id="Rectangle" fill="#9795F9" x="272.753349" y="200.512" width="26.6560766" height="26.736" rx="1.6079999"></rect>
                    <rect id="Rectangle" fill="#9795F9" x="306.816555" y="33.416" width="26.6560766" height="26.736" rx="1.6079999"></rect>
                    <rect id="Rectangle" fill="#9795F9" x="170.579713" y="133.672" width="26.6560766" height="26.736" rx="1.6079999"></rect>
                    <rect id="Rectangle" fill="#9795F9" x="102.461292" y="167.096" width="26.6560766" height="26.736" rx="1.6079999"></rect>
                    <rect id="Rectangle" fill="#272359" x="170.579713" y="100.256" width="26.6560766" height="26.736" rx="1.6079999"></rect>
                    <rect id="Rectangle" fill="#272359" x="238.698134" y="133.672" width="26.6560766" height="26.736" rx="1.6079999"></rect>
                    <rect id="Rectangle" fill="#272359" x="204.634928" y="-2.13162821e-14" width="26.6560766" height="26.736" rx="1.6079999"></rect>
                    <rect id="Rectangle" fill="#272359" x="136.524498" y="66.84" width="26.6560766" height="26.736" rx="1.6079999"></rect>
                    <rect id="Rectangle" fill="#272359" x="68.4060766" y="167.096" width="26.6560766" height="26.736" rx="1.6079999"></rect>
                    <rect id="Rectangle" fill="#272359" x="306.816555" y="167.096" width="26.6560766" height="26.736" rx="1.6079999"></rect>
                    <rect id="Rectangle" fill="#272359" x="34.3428708" y="167.096" width="26.6560766" height="26.736" rx="1.6079999"></rect>
                    <rect id="Rectangle" fill="#272359" x="68.4060766" y="133.672" width="26.6560766" height="26.736" rx="1.6079999"></rect>
                    <rect id="Rectangle" fill="#272359" x="306.816555" y="100.256" width="26.6560766" height="26.736" rx="1.6079999"></rect>
                    <rect id="Rectangle" fill="#272359" x="204.634928" y="133.672" width="26.6560766" height="26.736" rx="1.6079999"></rect>
                    <rect id="Rectangle" fill="#272359" x="102.461292" y="100.256" width="26.6560766" height="26.736" rx="1.6079999"></rect>
                </g>
                <g id="Group-21-Copy" transform="translate(167.000000, 114.000000) scale(-1, -1) translate(-167.000000, -114.000000) ">
                    <rect id="Rectangle" fill="#6262CC" x="272.753349" y="33.416" width="26.6560766" height="26.736" rx="1.6079999"></rect>
                    <rect id="Rectangle" fill="#6262CC" x="170.579713" y="66.84" width="26.6560766" height="26.736" rx="1.6079999"></rect>
                    <rect id="Rectangle" fill="#6262CC" x="272.753349" y="66.84" width="26.6560766" height="26.736" rx="1.6079999"></rect>
                    <rect id="Rectangle" fill="#6262CC" x="306.816555" y="66.84" width="26.6560766" height="26.736" rx="1.6079999"></rect>
                    <rect id="Rectangle" fill="#6262CC" x="170.579713" y="167.096" width="26.6560766" height="26.736" rx="1.6079999"></rect>
                    <rect id="Rectangle" fill="#6262CC" x="204.634928" y="167.096" width="26.6560766" height="26.736" rx="1.6079999"></rect>
                    <rect id="Rectangle" fill="#6262CC" x="136.524498" y="133.672" width="26.6560766" height="26.736" rx="1.6079999"></rect>
                    <rect id="Rectangle" fill="#6262CC" x="238.698134" y="100.256" width="26.6560766" height="26.736" rx="1.6079999"></rect>
                    <rect id="Rectangle" fill="#6262CC" x="34.3428708" y="200.512" width="26.6560766" height="26.736" rx="1.6079999"></rect>
                    <rect id="Rectangle" fill="#E6E6E6" x="170.579713" y="-2.13162821e-14" width="26.6560766" height="26.736" rx="1.6079999"></rect>
                    <rect id="Rectangle" fill="#E6E6E6" x="238.698134" y="-2.13162821e-14" width="26.6560766" height="26.736" rx="1.6079999"></rect>
                    <rect id="Rectangle" fill="#E6E6E6" x="102.461292" y="200.512" width="26.6560766" height="26.736" rx="1.6079999"></rect>
                    <rect id="Rectangle" fill="#E6E6E6" x="136.524498" y="200.512" width="26.6560766" height="26.736" rx="1.6079999"></rect>
                    <rect id="Rectangle" fill="#E6E6E6" x="238.698134" y="200.512" width="26.6560766" height="26.736" rx="1.6079999"></rect>
                    <rect id="Rectangle" fill="#E6E6E6" x="306.816555" y="-2.13162821e-14" width="26.6560766" height="26.736" rx="1.6079999"></rect>
                    <rect id="Rectangle" fill="#E6E6E6" x="0.287655502" y="200.512" width="26.6560766" height="26.736" rx="1.6079999"></rect>
                    <rect id="Rectangle" fill="#E6E6E6" x="306.816555" y="200.512" width="26.6560766" height="26.736" rx="1.6079999"></rect>
                    <rect id="Rectangle" fill="#3F3177" x="272.753349" y="-2.13162821e-14" width="26.6560766" height="26.736" rx="1.6079999"></rect>
                    <rect id="Rectangle" fill="#3F3177" x="238.698134" y="33.416" width="26.6560766" height="26.736" rx="1.6079999"></rect>
                    <rect id="Rectangle" fill="#3F3177" x="238.698134" y="66.84" width="26.6560766" height="26.736" rx="1.6079999"></rect>
                    <rect id="Rectangle" fill="#3F3177" x="170.579713" y="33.416" width="26.6560766" height="26.736" rx="1.6079999"></rect>
                    <rect id="Rectangle" fill="#3F3177" x="204.634928" y="100.256" width="26.6560766" height="26.736" rx="1.6079999"></rect>
                    <rect id="Rectangle" fill="#3F3177" x="136.524498" y="100.256" width="26.6560766" height="26.736" rx="1.6079999"></rect>
                    <rect id="Rectangle" fill="#3F3177" x="136.524498" y="167.096" width="26.6560766" height="26.736" rx="1.6079999"></rect>
                    <rect id="Rectangle" fill="#3F3177" x="272.753349" y="133.672" width="26.6560766" height="26.736" rx="1.6079999"></rect>
                    <rect id="Rectangle" fill="#3F3177" x="306.816555" y="133.672" width="26.6560766" height="26.736" rx="1.6079999"></rect>
                    <rect id="Rectangle" fill="#3F3177" x="272.753349" y="167.096" width="26.6560766" height="26.736" rx="1.6079999"></rect>
                    <rect id="Rectangle" fill="#3F3177" x="204.634928" y="200.512" width="26.6560766" height="26.736" rx="1.6079999"></rect>
                    <rect id="Rectangle" fill="#3F3177" x="170.579713" y="200.512" width="26.6560766" height="26.736" rx="1.6079999"></rect>
                    <rect id="Rectangle" fill="#3F3177" x="102.461292" y="133.672" width="26.6560766" height="26.736" rx="1.6079999"></rect>
                    <rect id="Rectangle" fill="#9795F9" x="204.634928" y="66.84" width="26.6560766" height="26.736" rx="1.6079999"></rect>
                    <rect id="Rectangle" fill="#9795F9" x="238.698134" y="167.096" width="26.6560766" height="26.736" rx="1.6079999"></rect>
                    <rect id="Rectangle" fill="#9795F9" x="204.634928" y="33.416" width="26.6560766" height="26.736" rx="1.6079999"></rect>
                    <rect id="Rectangle" fill="#9795F9" x="272.753349" y="100.256" width="26.6560766" height="26.736" rx="1.6079999"></rect>
                    <rect id="Rectangle" fill="#9795F9" x="68.4060766" y="200.512" width="26.6560766" height="26.736" rx="1.6079999"></rect>
                    <rect id="Rectangle" fill="#9795F9" x="272.753349" y="200.512" width="26.6560766" height="26.736" rx="1.6079999"></rect>
                    <rect id="Rectangle" fill="#9795F9" x="306.816555" y="33.416" width="26.6560766" height="26.736" rx="1.6079999"></rect>
                    <rect id="Rectangle" fill="#9795F9" x="170.579713" y="133.672" width="26.6560766" height="26.736" rx="1.6079999"></rect>
                    <rect id="Rectangle" fill="#9795F9" x="102.461292" y="167.096" width="26.6560766" height="26.736" rx="1.6079999"></rect>
                    <rect id="Rectangle" fill="#272359" x="170.579713" y="100.256" width="26.6560766" height="26.736" rx="1.6079999"></rect>
                    <rect id="Rectangle" fill="#272359" x="238.698134" y="133.672" width="26.6560766" height="26.736" rx="1.6079999"></rect>
                    <rect id="Rectangle" fill="#272359" x="204.634928" y="-2.13162821e-14" width="26.6560766" height="26.736" rx="1.6079999"></rect>
                    <rect id="Rectangle" fill="#272359" x="136.524498" y="66.84" width="26.6560766" height="26.736" rx="1.6079999"></rect>
                    <rect id="Rectangle" fill="#272359" x="68.4060766" y="167.096" width="26.6560766" height="26.736" rx="1.6079999"></rect>
                    <rect id="Rectangle" fill="#272359" x="306.816555" y="167.096" width="26.6560766" height="26.736" rx="1.6079999"></rect>
                    <rect id="Rectangle" fill="#272359" x="34.3428708" y="167.096" width="26.6560766" height="26.736" rx="1.6079999"></rect>
                    <rect id="Rectangle" fill="#272359" x="68.4060766" y="133.672" width="26.6560766" height="26.736" rx="1.6079999"></rect>
                    <rect id="Rectangle" fill="#272359" x="306.816555" y="100.256" width="26.6560766" height="26.736" rx="1.6079999"></rect>
                    <rect id="Rectangle" fill="#272359" x="204.634928" y="133.672" width="26.6560766" height="26.736" rx="1.6079999"></rect>
                    <rect id="Rectangle" fill="#272359" x="102.461292" y="100.256" width="26.6560766" height="26.736" rx="1.6079999"></rect>
                </g>
            </g>
        </g>
    </g>
</svg>
